Date,Pour,Contre,Mitige
2015-10-18T10:02:58,0,0,0
2015-10-18T11:03:06,0,0,0
2015-10-18T12:02:58,0,0,0
2015-10-18T13:03:00,0,0,0
2015-10-18T14:03:02,0,0,0
2015-10-18T15:03:07,0,1,0
2015-10-18T16:03:20,0,1,0
2015-10-18T17:04:06,0,1,0
2015-10-18T18:03:16,0,1,0
2015-10-18T19:03:11,0,1,0
2015-10-18T20:03:13,0,1,0
2015-10-18T21:03:10,0,1,0
2015-10-18T22:03:20,0,1,0
2015-10-18T23:03:27,0,1,1
2015-10-19T00:03:09,0,1,1
2015-10-19T01:03:25,0,1,1
