Date,Pour,Contre,Mitige
2015-10-16T15:04:19,1,0,0
2015-10-16T16:04:52,1,0,0
2015-10-16T16:24:21,1,0,0
2015-10-16T17:01:48,1,0,0
2015-10-16T17:06:06,1,0,0
2015-10-16T18:02:58,3,0,0
2015-10-16T19:02:59,4,0,0
2015-10-16T20:02:46,4,0,0
2015-10-16T21:03:32,4,0,0
2015-10-16T22:03:00,5,0,0
2015-10-16T23:02:52,5,0,0
2015-10-17T00:02:59,5,0,0
2015-10-17T01:03:36,5,0,0
2015-10-17T09:52:52,6,0,0
2015-10-17T10:03:02,6,0,0
2015-10-17T11:02:39,6,0,0
2015-10-17T12:03:00,6,0,0
2015-10-17T13:02:58,6,0,0
2015-10-17T14:03:29,6,0,0
2015-10-17T15:03:01,6,0,0
2015-10-17T16:03:15,7,0,0
2015-10-17T17:03:08,9,1,0
2015-10-17T18:03:10,9,1,0
2015-10-17T19:03:04,9,1,0
2015-10-17T20:02:46,9,1,0
2015-10-17T21:03:02,9,1,0
2015-10-17T22:06:04,10,1,0
2015-10-17T23:03:27,10,1,0
2015-10-18T00:02:54,10,1,0
2015-10-18T01:03:17,10,1,0
2015-10-18T02:03:20,10,1,0
2015-10-18T03:03:25,10,1,1
2015-10-18T04:03:11,10,1,1
2015-10-18T05:03:01,10,1,1
2015-10-18T06:03:03,10,1,1
2015-10-18T07:03:03,10,1,1
2015-10-18T08:02:51,10,1,1
2015-10-18T09:03:13,10,1,1
2015-10-18T10:02:58,11,1,1
2015-10-18T11:03:06,11,1,1
2015-10-18T12:02:58,12,1,1
2015-10-18T13:03:00,12,1,1
2015-10-18T14:03:02,12,1,1
2015-10-18T15:03:07,12,1,1
2015-10-18T16:03:20,13,1,1
2015-10-18T17:04:06,14,1,2
2015-10-18T18:03:16,15,1,2
2015-10-18T19:03:11,15,1,2
2015-10-18T20:03:13,15,1,2
2015-10-18T21:03:10,15,1,2
2015-10-18T22:03:20,16,1,2
2015-10-18T23:03:27,16,1,2
2015-10-19T00:03:09,16,1,2
2015-10-19T01:03:25,16,1,2
