Date,Pour,Contre,Mitige
2015-10-15T08:59:21,7,0,1
2015-10-15T09:03:46,7,0,1
2015-10-15T10:04:00,7,0,1
2015-10-15T11:04:18,7,0,1
2015-10-15T15:02:31,7,0,1
2015-10-15T16:03:48,7,0,1
2015-10-15T17:20:08,8,0,1
2015-10-15T18:04:13,8,0,1
2015-10-15T18:13:33,8,0,1
2015-10-15T19:04:16,8,0,1
2015-10-15T20:04:29,8,0,1
2015-10-16T08:35:57,8,0,1
2015-10-16T09:04:17,8,0,1
2015-10-16T10:04:29,9,0,1
2015-10-16T11:04:29,9,0,1
2015-10-16T12:04:08,16,0,1
2015-10-16T13:04:01,22,0,1
2015-10-16T14:04:23,24,0,1
2015-10-16T15:04:19,25,0,1
2015-10-16T16:04:52,29,0,1
2015-10-16T16:24:21,29,0,1
2015-10-16T17:01:48,30,0,1
2015-10-16T17:06:06,30,0,1
2015-10-16T18:02:58,31,0,1
2015-10-16T19:02:59,31,0,1
2015-10-16T20:02:46,33,0,1
2015-10-16T21:03:32,33,0,1
2015-10-16T22:03:00,33,0,1
2015-10-16T23:02:52,34,0,1
2015-10-17T00:02:59,34,0,1
2015-10-17T01:03:36,34,0,1
2015-10-17T09:52:52,34,0,1
2015-10-17T10:03:02,34,0,1
2015-10-17T11:02:39,36,0,1
2015-10-17T12:03:00,36,0,1
2015-10-17T13:02:58,37,0,1
2015-10-17T14:03:29,37,0,1
2015-10-17T15:03:01,37,0,1
2015-10-17T16:03:15,37,0,1
2015-10-17T17:03:08,37,0,1
2015-10-17T18:03:10,37,0,1
2015-10-17T19:03:04,37,0,1
2015-10-17T20:02:46,40,0,1
2015-10-17T21:03:02,40,0,1
2015-10-17T22:06:04,40,0,1
2015-10-17T23:03:27,41,0,1
2015-10-18T00:02:54,41,0,1
2015-10-18T01:03:17,41,0,1
2015-10-18T02:03:20,41,0,1
2015-10-18T03:03:25,41,0,1
2015-10-18T04:03:11,41,0,1
2015-10-18T05:03:01,41,0,1
2015-10-18T06:03:03,41,0,1
2015-10-18T07:03:03,41,0,1
2015-10-18T08:02:51,42,0,1
2015-10-18T09:03:13,42,0,1
2015-10-18T10:02:58,43,0,1
2015-10-18T11:03:06,43,0,1
2015-10-18T12:02:58,43,0,1
2015-10-18T13:03:00,43,0,1
2015-10-18T14:03:02,44,0,1
2015-10-18T15:03:07,45,0,1
2015-10-18T16:03:20,46,0,1
2015-10-18T17:04:06,46,0,1
2015-10-18T18:03:16,47,0,1
2015-10-18T19:03:11,48,0,1
2015-10-18T20:03:13,50,0,1
2015-10-18T21:03:10,54,0,1
2015-10-18T22:03:20,54,0,1
2015-10-18T23:03:27,54,0,1
2015-10-19T00:03:09,55,0,1
2015-10-19T01:03:25,55,0,1
