Date,Pour,Contre,Mitige
2015-10-15T08:59:21,3,0,2
2015-10-15T09:03:46,3,0,2
2015-10-15T10:04:00,3,0,2
2015-10-15T11:04:18,3,0,2
2015-10-15T15:02:31,3,0,2
2015-10-15T16:03:48,3,0,2
2015-10-15T17:20:08,4,0,2
2015-10-15T18:04:13,4,0,2
2015-10-15T18:13:33,4,0,2
2015-10-15T19:04:16,4,0,2
2015-10-15T20:04:29,4,0,2
2015-10-16T08:35:57,4,0,2
2015-10-16T09:04:17,4,0,2
2015-10-16T10:04:29,4,0,2
2015-10-16T11:04:29,4,0,2
2015-10-16T12:04:08,11,0,2
2015-10-16T13:04:01,17,0,2
2015-10-16T14:04:23,19,0,2
2015-10-16T15:04:19,20,0,2
2015-10-16T16:04:52,24,0,2
2015-10-16T16:24:21,24,0,2
2015-10-16T17:01:48,25,0,2
2015-10-16T17:06:06,25,0,2
2015-10-16T18:02:58,25,0,2
2015-10-16T19:02:59,26,0,2
2015-10-16T20:02:46,28,0,2
2015-10-16T21:03:32,28,0,2
2015-10-16T22:03:00,28,0,2
2015-10-16T23:02:52,30,0,2
2015-10-17T00:02:59,30,0,2
2015-10-17T01:03:36,30,0,2
2015-10-17T09:52:52,30,0,2
2015-10-17T10:03:02,30,0,2
2015-10-17T11:02:39,30,0,3
2015-10-17T12:03:00,31,0,3
2015-10-17T13:02:58,33,0,3
2015-10-17T14:03:29,33,0,3
2015-10-17T15:03:01,33,0,3
2015-10-17T16:03:15,33,0,3
2015-10-17T17:03:08,34,0,3
2015-10-17T18:03:10,34,0,3
2015-10-17T19:03:04,34,1,3
2015-10-17T20:02:46,36,1,4
2015-10-17T21:03:02,36,1,4
2015-10-17T22:06:04,36,1,4
2015-10-17T23:03:27,37,1,4
2015-10-18T00:02:54,37,1,4
2015-10-18T01:03:17,37,1,4
2015-10-18T02:03:20,37,1,4
2015-10-18T03:03:25,37,1,4
2015-10-18T04:03:11,37,1,4
2015-10-18T05:03:01,37,1,4
2015-10-18T06:03:03,37,1,4
2015-10-18T07:03:03,37,1,4
2015-10-18T08:02:51,38,1,4
2015-10-18T09:03:13,38,1,4
2015-10-18T10:02:58,39,1,4
2015-10-18T11:03:06,39,1,4
2015-10-18T12:02:58,39,1,4
2015-10-18T13:03:00,39,1,4
2015-10-18T14:03:02,40,1,4
2015-10-18T15:03:07,40,1,4
2015-10-18T16:03:20,41,1,4
2015-10-18T17:04:06,41,1,4
2015-10-18T18:03:16,42,1,4
2015-10-18T19:03:11,43,1,4
2015-10-18T20:03:13,44,1,4
2015-10-18T21:03:10,47,1,4
2015-10-18T22:03:20,47,1,4
2015-10-18T23:03:27,47,1,4
2015-10-19T00:03:09,47,1,4
2015-10-19T01:03:25,47,1,4
