Date,Pour,Contre,Mitige
2015-10-15T08:59:21,117,7,14
2015-10-15T09:03:46,117,7,14
2015-10-15T10:04:00,117,7,14
2015-10-15T11:04:18,117,7,14
2015-10-15T15:02:31,119,7,14
2015-10-15T16:03:48,119,7,14
2015-10-15T17:20:08,119,7,14
2015-10-15T18:04:13,120,7,14
2015-10-15T18:13:33,120,7,14
2015-10-15T19:04:16,121,7,14
2015-10-15T20:04:29,122,7,14
2015-10-16T08:35:57,123,7,14
2015-10-16T09:04:17,123,7,14
2015-10-16T10:04:29,123,7,14
2015-10-16T11:04:29,123,7,14
2015-10-16T12:04:08,124,7,14
2015-10-16T13:04:01,126,7,14
2015-10-16T14:04:23,126,7,14
2015-10-16T15:04:19,127,7,14
2015-10-16T16:04:52,127,7,14
2015-10-16T16:24:21,127,7,14
2015-10-16T17:01:48,127,7,14
2015-10-16T17:06:06,127,7,14
2015-10-16T18:02:58,128,7,14
2015-10-16T19:02:59,128,7,14
2015-10-16T20:02:46,128,7,14
2015-10-16T21:03:32,128,7,14
2015-10-16T22:03:00,128,7,14
2015-10-16T23:02:52,131,8,14
2015-10-17T00:02:59,133,8,14
2015-10-17T01:03:36,134,8,14
2015-10-17T09:52:52,134,9,14
2015-10-17T10:03:02,135,9,14
2015-10-17T11:02:39,135,9,14
2015-10-17T12:03:00,140,9,14
2015-10-17T13:02:58,140,9,14
2015-10-17T14:03:29,140,9,14
2015-10-17T15:03:01,140,9,14
2015-10-17T16:03:15,140,9,14
2015-10-17T17:03:08,141,9,14
2015-10-17T18:03:10,141,9,14
2015-10-17T19:03:04,141,9,14
2015-10-17T20:02:46,142,9,14
2015-10-17T21:03:02,142,9,14
2015-10-17T22:06:04,143,9,14
2015-10-17T23:03:27,143,9,14
2015-10-18T00:02:54,143,9,14
2015-10-18T01:03:17,144,9,14
2015-10-18T02:03:20,144,9,14
2015-10-18T03:03:25,144,9,14
2015-10-18T04:03:11,145,9,14
2015-10-18T05:03:01,145,9,14
2015-10-18T06:03:03,145,9,14
2015-10-18T07:03:03,145,9,14
2015-10-18T08:02:51,145,9,14
2015-10-18T09:03:13,145,9,14
2015-10-18T10:02:58,145,9,15
2015-10-18T11:03:06,145,9,15
2015-10-18T12:02:58,146,9,15
2015-10-18T13:03:00,147,9,15
2015-10-18T14:03:02,147,9,15
2015-10-18T15:03:07,147,9,15
2015-10-18T16:03:20,149,9,15
2015-10-18T17:04:06,150,9,15
2015-10-18T18:03:16,151,9,15
2015-10-18T19:03:11,154,9,15
2015-10-18T20:03:13,154,9,15
2015-10-18T21:03:10,154,9,15
2015-10-18T22:03:20,156,9,15
2015-10-18T23:03:27,158,9,15
2015-10-19T00:03:09,161,9,15
2015-10-19T01:03:25,161,9,15
