Date,Pour,Contre,Mitige
2015-10-15T08:59:21,18,38,8
2015-10-15T09:03:46,18,38,8
2015-10-15T10:04:00,18,38,8
2015-10-15T11:04:18,18,39,9
2015-10-15T15:02:31,19,42,9
2015-10-15T16:03:48,19,42,9
2015-10-15T17:20:08,19,42,9
2015-10-15T18:04:13,19,43,9
2015-10-15T18:13:33,19,43,9
2015-10-15T19:04:16,19,43,9
2015-10-15T20:04:29,19,43,9
2015-10-16T08:35:57,20,45,9
2015-10-16T09:04:17,20,45,9
2015-10-16T10:04:29,20,45,9
2015-10-16T11:04:29,21,46,9
2015-10-16T12:04:08,21,48,9
2015-10-16T13:04:01,21,48,9
2015-10-16T14:04:23,22,48,9
2015-10-16T15:04:19,22,48,9
2015-10-16T16:04:52,22,49,9
2015-10-16T16:24:21,23,49,9
2015-10-16T17:01:48,24,49,9
2015-10-16T17:06:06,24,49,9
2015-10-16T18:02:58,24,50,9
2015-10-16T19:02:59,24,50,9
2015-10-16T20:02:46,24,51,9
2015-10-16T21:03:32,25,52,9
2015-10-16T22:03:00,25,53,9
2015-10-16T23:02:52,25,53,9
2015-10-17T00:02:59,25,53,9
2015-10-17T01:03:36,25,54,9
2015-10-17T09:52:52,26,54,9
2015-10-17T10:03:02,26,54,9
2015-10-17T11:02:39,26,54,9
2015-10-17T12:03:00,26,54,9
2015-10-17T13:02:58,27,54,9
2015-10-17T14:03:29,27,54,9
2015-10-17T15:03:01,27,54,9
2015-10-17T16:03:15,27,54,9
2015-10-17T17:03:08,27,54,9
2015-10-17T18:03:10,27,56,9
2015-10-17T19:03:04,28,57,9
2015-10-17T20:02:46,28,57,9
2015-10-17T21:03:02,28,57,9
2015-10-17T22:06:04,28,57,9
2015-10-17T23:03:27,28,57,9
2015-10-18T00:02:54,28,57,9
2015-10-18T01:03:17,28,57,9
2015-10-18T02:03:20,28,58,9
2015-10-18T03:03:25,28,58,9
2015-10-18T04:03:11,28,58,9
2015-10-18T05:03:01,28,58,9
2015-10-18T06:03:03,28,58,9
2015-10-18T07:03:03,28,58,9
2015-10-18T08:02:51,28,58,9
2015-10-18T09:03:13,28,58,9
2015-10-18T10:02:58,28,58,9
2015-10-18T11:03:06,28,58,9
2015-10-18T12:02:58,28,58,9
2015-10-18T13:03:00,28,59,9
2015-10-18T14:03:02,28,59,9
2015-10-18T15:03:07,28,59,9
2015-10-18T16:03:20,28,59,9
2015-10-18T17:04:06,28,63,9
2015-10-18T18:03:16,28,63,9
2015-10-18T19:03:11,28,63,9
2015-10-18T20:03:13,28,63,9
2015-10-18T21:03:10,28,63,9
2015-10-18T22:03:20,28,63,9
2015-10-18T23:03:27,28,64,9
2015-10-19T00:03:09,28,64,10
2015-10-19T01:03:25,28,64,10
