Date,Pour,Contre,Mitige
2015-10-15T08:59:21,23,74,8
2015-10-15T09:03:46,23,74,8
2015-10-15T10:04:00,23,75,8
2015-10-15T11:04:18,23,76,8
2015-10-15T15:02:31,23,76,9
2015-10-15T16:03:48,23,76,9
2015-10-15T17:20:08,23,79,9
2015-10-15T18:04:13,23,79,9
2015-10-15T18:13:33,23,79,9
2015-10-15T19:04:16,23,81,9
2015-10-15T20:04:29,23,81,9
2015-10-16T08:35:57,24,84,9
2015-10-16T09:04:17,24,84,9
2015-10-16T10:04:29,24,85,9
2015-10-16T11:04:29,25,85,9
2015-10-16T12:04:08,25,88,9
2015-10-16T13:04:01,25,89,9
2015-10-16T14:04:23,25,89,9
2015-10-16T15:04:19,25,91,9
2015-10-16T16:04:52,25,95,9
2015-10-16T16:24:21,25,95,9
2015-10-16T17:01:48,25,95,9
2015-10-16T17:06:06,25,96,9
2015-10-16T18:02:58,25,96,9
2015-10-16T19:02:59,25,96,9
2015-10-16T20:02:46,26,97,9
2015-10-16T21:03:32,26,98,9
2015-10-16T22:03:00,26,98,9
2015-10-16T23:02:52,26,101,9
2015-10-17T00:02:59,26,101,9
2015-10-17T01:03:36,26,101,9
2015-10-17T09:52:52,26,104,10
2015-10-17T10:03:02,26,104,10
2015-10-17T11:02:39,26,105,10
2015-10-17T12:03:00,26,106,10
2015-10-17T13:02:58,26,109,10
2015-10-17T14:03:29,26,110,10
2015-10-17T15:03:01,26,111,10
2015-10-17T16:03:15,26,111,10
2015-10-17T17:03:08,26,115,10
2015-10-17T18:03:10,26,115,10
2015-10-17T19:03:04,26,115,10
2015-10-17T20:02:46,26,115,10
2015-10-17T21:03:02,26,116,10
2015-10-17T22:06:04,26,117,10
2015-10-17T23:03:27,26,117,10
2015-10-18T00:02:54,26,118,10
2015-10-18T01:03:17,26,118,10
2015-10-18T02:03:20,26,118,10
2015-10-18T03:03:25,26,118,10
2015-10-18T04:03:11,26,118,10
2015-10-18T05:03:01,26,118,10
2015-10-18T06:03:03,26,118,10
2015-10-18T07:03:03,26,118,10
2015-10-18T08:02:51,26,118,10
2015-10-18T09:03:13,26,119,10
2015-10-18T10:02:58,26,119,11
2015-10-18T11:03:06,26,119,11
2015-10-18T12:02:58,26,123,12
2015-10-18T13:03:00,27,125,12
2015-10-18T14:03:02,27,125,12
2015-10-18T15:03:07,27,126,12
2015-10-18T16:03:20,27,126,12
2015-10-18T17:04:06,27,127,12
2015-10-18T18:03:16,27,128,12
2015-10-18T19:03:11,27,129,12
2015-10-18T20:03:13,27,130,12
2015-10-18T21:03:10,27,130,12
2015-10-18T22:03:20,27,130,12
2015-10-18T23:03:27,27,131,12
2015-10-19T00:03:09,27,133,13
2015-10-19T01:03:25,27,133,13
