Date,Pour,Contre,Mitige
2015-10-15T08:59:21,70,15,9
2015-10-15T09:03:46,70,15,9
2015-10-15T10:04:00,70,15,9
2015-10-15T11:04:18,71,15,9
2015-10-15T15:02:31,72,15,9
2015-10-15T16:03:48,72,15,9
2015-10-15T17:20:08,73,16,9
2015-10-15T18:04:13,73,16,9
2015-10-15T18:13:33,74,16,9
2015-10-15T19:04:16,74,16,9
2015-10-15T20:04:29,74,16,9
2015-10-16T08:35:57,75,16,9
2015-10-16T09:04:17,75,17,9
2015-10-16T10:04:29,75,17,9
2015-10-16T11:04:29,77,17,9
2015-10-16T12:04:08,77,17,9
2015-10-16T13:04:01,78,17,9
2015-10-16T14:04:23,79,17,9
2015-10-16T15:04:19,82,17,9
2015-10-16T16:04:52,83,17,9
2015-10-16T16:24:21,83,17,9
2015-10-16T17:01:48,84,17,9
2015-10-16T17:06:06,84,17,9
2015-10-16T18:02:58,84,17,9
2015-10-16T19:02:59,84,17,9
2015-10-16T20:02:46,85,17,9
2015-10-16T21:03:32,85,17,9
2015-10-16T22:03:00,85,19,9
2015-10-16T23:02:52,85,20,9
2015-10-17T00:02:59,86,20,9
2015-10-17T01:03:36,86,21,9
2015-10-17T09:52:52,87,23,9
2015-10-17T10:03:02,87,23,9
2015-10-17T11:02:39,87,24,9
2015-10-17T12:03:00,90,24,9
2015-10-17T13:02:58,92,24,9
2015-10-17T14:03:29,93,24,9
2015-10-17T15:03:01,94,24,9
2015-10-17T16:03:15,94,24,9
2015-10-17T17:03:08,95,24,9
2015-10-17T18:03:10,96,24,9
2015-10-17T19:03:04,97,24,9
2015-10-17T20:02:46,97,25,10
2015-10-17T21:03:02,97,25,10
2015-10-17T22:06:04,97,25,10
2015-10-17T23:03:27,97,25,10
2015-10-18T00:02:54,97,25,10
2015-10-18T01:03:17,97,25,10
2015-10-18T02:03:20,98,25,10
2015-10-18T03:03:25,99,25,10
2015-10-18T04:03:11,99,25,10
2015-10-18T05:03:01,99,25,10
2015-10-18T06:03:03,99,25,10
2015-10-18T07:03:03,99,25,10
2015-10-18T08:02:51,99,25,10
2015-10-18T09:03:13,99,25,10
2015-10-18T10:02:58,99,25,10
2015-10-18T11:03:06,99,25,10
2015-10-18T12:02:58,99,25,10
2015-10-18T13:03:00,99,25,10
2015-10-18T14:03:02,100,25,10
2015-10-18T15:03:07,102,25,10
2015-10-18T16:03:20,103,25,10
2015-10-18T17:04:06,104,25,10
2015-10-18T18:03:16,105,25,10
2015-10-18T19:03:11,108,25,11
2015-10-18T20:03:13,108,25,11
2015-10-18T21:03:10,110,25,11
2015-10-18T22:03:20,113,25,11
2015-10-18T23:03:27,115,25,11
2015-10-19T00:03:09,117,25,11
2015-10-19T01:03:25,117,25,11
