Date,Pour,Contre,Mitige
2015-10-15T08:59:21,369,22,18
2015-10-15T09:03:46,369,22,18
2015-10-15T10:04:00,370,22,18
2015-10-15T11:04:18,370,22,18
2015-10-15T15:02:31,383,22,18
2015-10-15T16:03:48,386,22,18
2015-10-15T17:20:08,392,22,18
2015-10-15T18:04:13,395,22,18
2015-10-15T18:13:33,395,22,18
2015-10-15T19:04:16,395,22,18
2015-10-15T20:04:29,396,22,18
2015-10-16T08:35:57,405,22,18
2015-10-16T09:04:17,406,22,18
2015-10-16T10:04:29,410,22,18
2015-10-16T11:04:29,413,22,18
2015-10-16T12:04:08,413,22,18
2015-10-16T13:04:01,415,22,18
2015-10-16T14:04:23,415,22,18
2015-10-16T15:04:19,418,22,18
2015-10-16T16:04:52,418,22,18
2015-10-16T16:24:21,418,22,18
2015-10-16T17:01:48,418,22,18
2015-10-16T17:06:06,419,22,18
2015-10-16T18:02:58,421,22,18
2015-10-16T19:02:59,422,22,18
2015-10-16T20:02:46,426,22,18
2015-10-16T21:03:32,426,22,18
2015-10-16T22:03:00,430,22,18
2015-10-16T23:02:52,431,22,18
2015-10-17T00:02:59,433,22,18
2015-10-17T01:03:36,434,22,18
2015-10-17T09:52:52,437,22,18
2015-10-17T10:03:02,437,22,18
2015-10-17T11:02:39,440,23,18
2015-10-17T12:03:00,445,23,18
2015-10-17T13:02:58,449,23,19
2015-10-17T14:03:29,450,23,20
2015-10-17T15:03:01,451,24,20
2015-10-17T16:03:15,460,25,21
2015-10-17T17:03:08,462,25,21
2015-10-17T18:03:10,462,25,21
2015-10-17T19:03:04,464,25,21
2015-10-17T20:02:46,465,25,21
2015-10-17T21:03:02,468,25,21
2015-10-17T22:06:04,470,25,21
2015-10-17T23:03:27,470,25,21
2015-10-18T00:02:54,471,26,21
2015-10-18T01:03:17,471,26,21
2015-10-18T02:03:20,471,26,21
2015-10-18T03:03:25,471,26,21
2015-10-18T04:03:11,471,26,21
2015-10-18T05:03:01,471,26,21
2015-10-18T06:03:03,471,26,21
2015-10-18T07:03:03,471,26,21
2015-10-18T08:02:51,471,26,21
2015-10-18T09:03:13,471,26,21
2015-10-18T10:02:58,471,26,21
2015-10-18T11:03:06,473,26,21
2015-10-18T12:02:58,479,26,21
2015-10-18T13:03:00,481,26,21
2015-10-18T14:03:02,484,26,21
2015-10-18T15:03:07,486,26,21
2015-10-18T16:03:20,491,26,21
2015-10-18T17:04:06,495,26,22
2015-10-18T18:03:16,498,26,22
2015-10-18T19:03:11,503,27,22
2015-10-18T20:03:13,506,27,22
2015-10-18T21:03:10,508,27,22
2015-10-18T22:03:20,511,27,22
2015-10-18T23:03:27,514,27,23
2015-10-19T00:03:09,522,27,23
2015-10-19T01:03:25,522,27,23
