Date,Pour,Contre,Mitige
2015-10-15T08:59:21,18,3,2
2015-10-15T09:03:46,18,3,2
2015-10-15T10:04:00,18,3,2
2015-10-15T11:04:18,18,3,2
2015-10-15T15:02:31,18,3,2
2015-10-15T16:03:48,18,3,2
2015-10-15T17:20:08,18,3,2
2015-10-15T18:04:13,18,3,2
2015-10-15T18:13:33,18,3,2
2015-10-15T19:04:16,18,3,2
2015-10-15T20:04:29,18,3,2
2015-10-16T08:35:57,19,3,2
2015-10-16T09:04:17,19,3,2
2015-10-16T10:04:29,19,3,2
2015-10-16T11:04:29,19,3,2
2015-10-16T12:04:08,19,3,2
2015-10-16T13:04:01,19,3,2
2015-10-16T14:04:23,20,3,2
2015-10-16T15:04:19,20,3,2
2015-10-16T16:04:52,20,3,2
2015-10-16T16:24:21,20,3,2
2015-10-16T17:01:48,21,3,2
2015-10-16T17:06:06,21,3,2
2015-10-16T18:02:58,21,3,2
2015-10-16T19:02:59,21,3,2
2015-10-16T20:02:46,22,3,2
2015-10-16T21:03:32,22,3,2
2015-10-16T22:03:00,22,3,2
2015-10-16T23:02:52,22,3,2
2015-10-17T00:02:59,22,3,2
2015-10-17T01:03:36,22,3,2
2015-10-17T09:52:52,22,3,2
2015-10-17T10:03:02,22,3,2
2015-10-17T11:02:39,22,3,2
2015-10-17T12:03:00,22,3,2
2015-10-17T13:02:58,22,3,2
2015-10-17T14:03:29,22,3,2
2015-10-17T15:03:01,22,3,2
2015-10-17T16:03:15,22,3,3
2015-10-17T17:03:08,22,3,3
2015-10-17T18:03:10,24,3,3
2015-10-17T19:03:04,24,3,3
2015-10-17T20:02:46,24,3,3
2015-10-17T21:03:02,24,3,3
2015-10-17T22:06:04,24,3,3
2015-10-17T23:03:27,25,3,3
2015-10-18T00:02:54,25,3,3
2015-10-18T01:03:17,26,3,3
2015-10-18T02:03:20,26,3,3
2015-10-18T03:03:25,26,3,3
2015-10-18T04:03:11,26,3,3
2015-10-18T05:03:01,26,3,3
2015-10-18T06:03:03,26,3,3
2015-10-18T07:03:03,26,3,3
2015-10-18T08:02:51,26,3,3
2015-10-18T09:03:13,26,3,3
2015-10-18T10:02:58,26,3,3
2015-10-18T11:03:06,26,3,3
2015-10-18T12:02:58,27,3,3
2015-10-18T13:03:00,27,3,3
2015-10-18T14:03:02,27,3,3
2015-10-18T15:03:07,27,3,3
2015-10-18T16:03:20,28,3,3
2015-10-18T17:04:06,28,3,3
2015-10-18T18:03:16,28,3,3
2015-10-18T19:03:11,28,3,3
2015-10-18T20:03:13,28,3,3
2015-10-18T21:03:10,28,3,3
2015-10-18T22:03:20,28,3,3
2015-10-18T23:03:27,28,3,3
2015-10-19T00:03:09,28,4,4
2015-10-19T01:03:25,28,4,4
