Date,Pour,Contre,Mitige
2015-10-18T19:03:11,0,0,0
2015-10-18T20:03:13,0,0,0
2015-10-18T21:03:10,0,0,0
2015-10-18T22:03:20,0,0,0
2015-10-18T23:03:27,2,0,0
2015-10-19T00:03:09,2,0,0
2015-10-19T01:03:25,2,0,0
