Date,Pour,Contre,Mitige
2015-10-15T08:59:21,83,0,0
2015-10-15T09:03:46,83,0,0
2015-10-15T10:04:00,83,0,0
2015-10-15T11:04:18,85,0,0
2015-10-15T15:02:31,88,0,0
2015-10-15T16:03:48,89,0,0
2015-10-15T17:20:08,89,0,0
2015-10-15T18:04:13,91,0,0
2015-10-15T18:13:33,91,0,0
2015-10-15T19:04:16,92,0,0
2015-10-15T20:04:29,93,0,0
2015-10-16T08:35:57,99,0,0
2015-10-16T09:04:17,100,0,0
2015-10-16T10:04:29,102,0,0
2015-10-16T11:04:29,103,0,0
2015-10-16T12:04:08,104,0,0
2015-10-16T13:04:01,106,0,0
2015-10-16T14:04:23,109,0,0
2015-10-16T15:04:19,115,0,0
2015-10-16T16:04:52,118,0,0
2015-10-16T16:24:21,119,0,0
2015-10-16T17:01:48,120,0,0
2015-10-16T17:06:06,120,0,0
2015-10-16T18:02:58,121,0,0
2015-10-16T19:02:59,123,0,0
2015-10-16T20:02:46,123,0,0
2015-10-16T21:03:32,124,0,0
2015-10-16T22:03:00,126,0,0
2015-10-16T23:02:52,128,0,0
2015-10-17T00:02:59,128,0,0
2015-10-17T01:03:36,128,0,0
2015-10-17T09:52:52,131,0,0
2015-10-17T10:03:02,131,0,0
2015-10-17T11:02:39,131,0,0
2015-10-17T12:03:00,134,0,0
2015-10-17T13:02:58,140,0,0
2015-10-17T14:03:29,142,0,0
2015-10-17T15:03:01,143,0,0
2015-10-17T16:03:15,145,0,0
2015-10-17T17:03:08,146,0,0
2015-10-17T18:03:10,148,0,0
2015-10-17T19:03:04,150,0,0
2015-10-17T20:02:46,151,0,0
2015-10-17T21:03:02,151,0,0
2015-10-17T22:06:04,152,0,0
2015-10-17T23:03:27,154,0,0
2015-10-18T00:02:54,155,0,0
2015-10-18T01:03:17,156,0,0
2015-10-18T02:03:20,156,0,0
2015-10-18T03:03:25,156,0,0
2015-10-18T04:03:11,156,0,0
2015-10-18T05:03:01,156,0,0
2015-10-18T06:03:03,157,0,0
2015-10-18T07:03:03,157,0,0
2015-10-18T08:02:51,157,0,0
2015-10-18T09:03:13,157,0,0
2015-10-18T10:02:58,158,0,0
2015-10-18T11:03:06,161,0,0
2015-10-18T12:02:58,165,0,0
2015-10-18T13:03:00,166,0,0
2015-10-18T14:03:02,170,0,0
2015-10-18T15:03:07,172,0,0
2015-10-18T16:03:20,174,0,0
2015-10-18T17:04:06,175,0,1
2015-10-18T18:03:16,183,0,1
2015-10-18T19:03:11,188,0,2
2015-10-18T20:03:13,192,0,2
2015-10-18T21:03:10,194,0,2
2015-10-18T22:03:20,195,0,2
2015-10-18T23:03:27,197,0,2
2015-10-19T00:03:09,200,0,2
2015-10-19T01:03:25,200,0,2
