Date,Pour,Contre,Mitige
2015-10-15T08:59:21,55,1,7
2015-10-15T09:03:46,55,1,7
2015-10-15T10:04:00,55,1,7
2015-10-15T11:04:18,56,1,7
2015-10-15T15:02:31,56,1,7
2015-10-15T16:03:48,56,1,7
2015-10-15T17:20:08,56,1,7
2015-10-15T18:04:13,56,1,7
2015-10-15T18:13:33,56,1,7
2015-10-15T19:04:16,56,1,7
2015-10-15T20:04:29,56,1,7
2015-10-16T08:35:57,57,1,7
2015-10-16T09:04:17,57,1,7
2015-10-16T10:04:29,57,1,7
2015-10-16T11:04:29,58,1,7
2015-10-16T12:04:08,58,1,7
2015-10-16T13:04:01,59,1,7
2015-10-16T14:04:23,59,1,7
2015-10-16T15:04:19,60,1,7
2015-10-16T16:04:52,60,1,7
2015-10-16T16:24:21,60,1,7
2015-10-16T17:01:48,61,1,7
2015-10-16T17:06:06,61,1,7
2015-10-16T18:02:58,61,1,7
2015-10-16T19:02:59,61,1,7
2015-10-16T20:02:46,62,1,7
2015-10-16T21:03:32,64,1,7
2015-10-16T22:03:00,64,1,8
2015-10-16T23:02:52,64,1,8
2015-10-17T00:02:59,64,1,8
2015-10-17T01:03:36,64,1,8
2015-10-17T09:52:52,64,1,8
2015-10-17T10:03:02,64,1,8
2015-10-17T11:02:39,65,1,8
2015-10-17T12:03:00,66,1,8
2015-10-17T13:02:58,67,1,8
2015-10-17T14:03:29,67,1,8
2015-10-17T15:03:01,67,1,8
2015-10-17T16:03:15,67,1,8
2015-10-17T17:03:08,69,1,8
2015-10-17T18:03:10,69,2,8
2015-10-17T19:03:04,69,2,8
2015-10-17T20:02:46,69,2,8
2015-10-17T21:03:02,69,2,8
2015-10-17T22:06:04,69,2,8
2015-10-17T23:03:27,69,2,8
2015-10-18T00:02:54,69,2,8
2015-10-18T01:03:17,69,2,8
2015-10-18T02:03:20,70,2,8
2015-10-18T03:03:25,70,2,8
2015-10-18T04:03:11,70,2,8
2015-10-18T05:03:01,70,2,8
2015-10-18T06:03:03,70,2,8
2015-10-18T07:03:03,70,2,8
2015-10-18T08:02:51,70,2,8
2015-10-18T09:03:13,70,2,8
2015-10-18T10:02:58,70,2,8
2015-10-18T11:03:06,71,2,8
2015-10-18T12:02:58,73,2,8
2015-10-18T13:03:00,73,2,8
2015-10-18T14:03:02,76,2,8
2015-10-18T15:03:07,76,2,9
2015-10-18T16:03:20,76,2,9
2015-10-18T17:04:06,77,2,9
2015-10-18T18:03:16,77,2,9
2015-10-18T19:03:11,77,2,9
2015-10-18T20:03:13,79,2,9
2015-10-18T21:03:10,79,2,9
2015-10-18T22:03:20,80,2,10
2015-10-18T23:03:27,81,2,10
2015-10-19T00:03:09,81,2,10
2015-10-19T01:03:25,81,2,10
