Date,Pour,Contre,Mitige
2015-10-15T08:59:21,14,0,0
2015-10-15T09:03:46,14,0,0
2015-10-15T10:04:00,14,0,0
2015-10-15T11:04:18,14,0,0
2015-10-15T15:02:31,14,0,0
2015-10-15T16:03:48,14,0,0
2015-10-15T17:20:08,14,0,0
2015-10-15T18:04:13,14,0,0
2015-10-15T18:13:33,14,0,0
2015-10-15T19:04:16,14,0,0
2015-10-15T20:04:29,14,0,0
2015-10-16T08:35:57,15,0,0
2015-10-16T09:04:17,15,0,0
2015-10-16T10:04:29,15,0,0
2015-10-16T11:04:29,15,0,0
2015-10-16T12:04:08,16,0,0
2015-10-16T13:04:01,16,0,0
2015-10-16T14:04:23,16,0,0
2015-10-16T15:04:19,16,0,0
2015-10-16T16:04:52,16,0,0
2015-10-16T16:24:21,16,0,0
2015-10-16T17:01:48,16,0,0
2015-10-16T17:06:06,16,0,0
2015-10-16T18:02:58,16,0,0
2015-10-16T19:02:59,16,0,0
2015-10-16T20:02:46,17,0,0
2015-10-16T21:03:32,17,0,0
2015-10-16T22:03:00,17,0,0
2015-10-16T23:02:52,17,0,0
2015-10-17T00:02:59,17,0,0
2015-10-17T01:03:36,17,0,0
2015-10-17T09:52:52,17,0,0
2015-10-17T10:03:02,17,0,0
2015-10-17T11:02:39,17,0,0
2015-10-17T12:03:00,17,0,0
2015-10-17T13:02:58,17,0,0
2015-10-17T14:03:29,17,0,0
2015-10-17T15:03:01,17,0,0
2015-10-17T16:03:15,17,0,0
2015-10-17T17:03:08,17,1,0
2015-10-17T18:03:10,17,1,0
2015-10-17T19:03:04,17,1,0
2015-10-17T20:02:46,17,1,0
2015-10-17T21:03:02,17,1,0
2015-10-17T22:06:04,17,1,0
2015-10-17T23:03:27,17,1,0
2015-10-18T00:02:54,17,1,0
2015-10-18T01:03:17,17,1,0
2015-10-18T02:03:20,17,1,0
2015-10-18T03:03:25,17,1,0
2015-10-18T04:03:11,17,1,0
2015-10-18T05:03:01,17,1,0
2015-10-18T06:03:03,17,1,0
2015-10-18T07:03:03,17,1,0
2015-10-18T08:02:51,17,1,0
2015-10-18T09:03:13,17,1,0
2015-10-18T10:02:58,17,1,0
2015-10-18T11:03:06,17,1,0
2015-10-18T12:02:58,18,1,0
2015-10-18T13:03:00,18,1,0
2015-10-18T14:03:02,18,1,0
2015-10-18T15:03:07,18,1,0
2015-10-18T16:03:20,18,1,0
2015-10-18T17:04:06,18,1,0
2015-10-18T18:03:16,18,1,0
2015-10-18T19:03:11,18,1,0
2015-10-18T20:03:13,18,1,0
2015-10-18T21:03:10,18,1,0
2015-10-18T22:03:20,18,1,0
2015-10-18T23:03:27,18,1,0
2015-10-19T00:03:09,18,1,0
2015-10-19T01:03:25,18,1,0
