Date,Pour,Contre,Mitige
2015-10-15T08:59:21,9,0,0
2015-10-15T09:03:46,9,0,0
2015-10-15T10:04:00,9,0,0
2015-10-15T11:04:18,9,0,0
2015-10-15T15:02:31,9,0,0
2015-10-15T16:03:48,9,0,0
2015-10-15T17:20:08,10,0,0
2015-10-15T18:04:13,10,0,0
2015-10-15T18:13:33,10,0,0
2015-10-15T19:04:16,10,0,0
2015-10-15T20:04:29,10,0,0
2015-10-16T08:35:57,11,0,0
2015-10-16T09:04:17,11,0,0
2015-10-16T10:04:29,12,0,0
2015-10-16T11:04:29,12,0,0
2015-10-16T12:04:08,12,0,0
2015-10-16T13:04:01,13,0,0
2015-10-16T14:04:23,13,0,0
2015-10-16T15:04:19,13,0,0
2015-10-16T16:04:52,13,0,0
2015-10-16T16:24:21,13,0,0
2015-10-16T17:01:48,13,0,0
2015-10-16T17:06:06,13,0,0
2015-10-16T18:02:58,13,0,0
2015-10-16T19:02:59,13,0,0
2015-10-16T20:02:46,13,0,0
2015-10-16T21:03:32,13,0,0
2015-10-16T22:03:00,13,0,0
2015-10-16T23:02:52,13,0,0
2015-10-17T00:02:59,13,0,0
2015-10-17T01:03:36,13,0,0
2015-10-17T09:52:52,14,0,0
2015-10-17T10:03:02,14,0,0
2015-10-17T11:02:39,14,0,0
2015-10-17T12:03:00,14,0,0
2015-10-17T13:02:58,14,0,0
2015-10-17T14:03:29,14,0,0
2015-10-17T15:03:01,14,0,0
2015-10-17T16:03:15,15,0,0
2015-10-17T17:03:08,16,0,0
2015-10-17T18:03:10,16,0,0
2015-10-17T19:03:04,16,0,0
2015-10-17T20:02:46,16,0,0
2015-10-17T21:03:02,17,0,0
2015-10-17T22:06:04,17,0,0
2015-10-17T23:03:27,17,0,0
2015-10-18T00:02:54,17,0,0
2015-10-18T01:03:17,17,0,0
2015-10-18T02:03:20,17,0,0
2015-10-18T03:03:25,17,0,0
2015-10-18T04:03:11,17,0,0
2015-10-18T05:03:01,17,0,0
2015-10-18T06:03:03,17,0,0
2015-10-18T07:03:03,17,0,0
2015-10-18T08:02:51,17,0,0
2015-10-18T09:03:13,17,0,0
2015-10-18T10:02:58,17,0,0
2015-10-18T11:03:06,17,0,0
2015-10-18T12:02:58,18,0,0
2015-10-18T13:03:00,18,0,0
2015-10-18T14:03:02,18,0,0
2015-10-18T15:03:07,18,0,0
2015-10-18T16:03:20,19,0,0
2015-10-18T17:04:06,19,0,0
2015-10-18T18:03:16,20,0,0
2015-10-18T19:03:11,20,0,0
2015-10-18T20:03:13,21,0,0
2015-10-18T21:03:10,22,0,0
2015-10-18T22:03:20,22,0,0
2015-10-18T23:03:27,22,0,0
2015-10-19T00:03:09,22,0,0
2015-10-19T01:03:25,22,0,0
