Date,Pour,Contre,Mitige
2015-10-15T08:59:21,0,0,0
2015-10-15T09:03:46,0,0,0
2015-10-15T10:04:00,0,0,0
2015-10-15T11:04:18,0,0,0
2015-10-15T15:02:31,0,0,1
2015-10-15T16:03:48,0,0,1
2015-10-15T17:20:08,0,0,1
2015-10-15T18:04:13,0,0,1
2015-10-15T18:13:33,0,0,1
2015-10-15T19:04:16,0,0,2
2015-10-15T20:04:29,0,0,2
2015-10-16T08:35:57,2,0,2
2015-10-16T09:04:17,2,0,2
2015-10-16T10:04:29,2,0,2
2015-10-16T11:04:29,2,0,2
2015-10-16T12:04:08,2,0,3
2015-10-16T13:04:01,2,0,3
2015-10-16T14:04:23,2,0,3
2015-10-16T15:04:19,2,0,3
2015-10-16T16:04:52,3,0,3
2015-10-16T16:24:21,3,0,3
2015-10-16T17:01:48,3,0,3
2015-10-16T17:06:06,3,0,3
2015-10-16T18:02:58,3,0,3
2015-10-16T19:02:59,3,0,3
2015-10-16T20:02:46,3,0,3
2015-10-16T21:03:32,3,0,3
2015-10-16T22:03:00,3,0,3
2015-10-16T23:02:52,3,0,3
2015-10-17T00:02:59,3,0,3
2015-10-17T01:03:36,3,0,3
2015-10-17T09:52:52,3,0,3
2015-10-17T10:03:02,3,0,3
2015-10-17T11:02:39,4,0,3
2015-10-17T12:03:00,4,0,3
2015-10-17T13:02:58,4,0,3
2015-10-17T14:03:29,4,0,4
2015-10-17T15:03:01,4,1,4
2015-10-17T16:03:15,4,1,4
2015-10-17T17:03:08,5,1,4
2015-10-17T18:03:10,5,1,4
2015-10-17T19:03:04,5,1,4
2015-10-17T20:02:46,5,1,4
2015-10-17T21:03:02,5,1,4
2015-10-17T22:06:04,5,1,4
2015-10-17T23:03:27,5,1,4
2015-10-18T00:02:54,5,1,4
2015-10-18T01:03:17,5,1,4
2015-10-18T02:03:20,5,1,4
2015-10-18T03:03:25,5,1,4
2015-10-18T04:03:11,5,1,4
2015-10-18T05:03:01,5,1,4
2015-10-18T06:03:03,5,1,4
2015-10-18T07:03:03,5,1,4
2015-10-18T08:02:51,5,1,4
2015-10-18T09:03:13,5,1,4
2015-10-18T10:02:58,5,1,4
2015-10-18T11:03:06,5,1,4
2015-10-18T12:02:58,5,1,4
2015-10-18T13:03:00,6,1,4
2015-10-18T14:03:02,6,1,4
2015-10-18T15:03:07,7,1,4
2015-10-18T16:03:20,7,1,4
2015-10-18T17:04:06,8,1,4
2015-10-18T18:03:16,8,1,4
2015-10-18T19:03:11,8,1,4
2015-10-18T20:03:13,8,1,4
2015-10-18T21:03:10,8,1,4
2015-10-18T22:03:20,8,1,4
2015-10-18T23:03:27,8,1,4
2015-10-19T00:03:09,9,1,4
2015-10-19T01:03:25,9,1,4
