Date,Pour,Contre,Mitige
2015-10-15T08:59:21,48,0,3
2015-10-15T09:03:46,48,0,3
2015-10-15T10:04:00,48,0,3
2015-10-15T11:04:18,48,0,3
2015-10-15T15:02:31,52,0,3
2015-10-15T16:03:48,52,0,3
2015-10-15T17:20:08,53,0,3
2015-10-15T18:04:13,53,0,3
2015-10-15T18:13:33,53,0,3
2015-10-15T19:04:16,53,0,3
2015-10-15T20:04:29,54,0,3
2015-10-16T08:35:57,55,0,3
2015-10-16T09:04:17,55,0,3
2015-10-16T10:04:29,56,0,3
2015-10-16T11:04:29,56,0,3
2015-10-16T12:04:08,57,0,3
2015-10-16T13:04:01,58,0,3
2015-10-16T14:04:23,58,0,3
2015-10-16T15:04:19,58,0,3
2015-10-16T16:04:52,60,0,3
2015-10-16T16:24:21,60,0,3
2015-10-16T17:01:48,62,0,3
2015-10-16T17:06:06,62,0,3
2015-10-16T18:02:58,62,0,3
2015-10-16T19:02:59,62,0,3
2015-10-16T20:02:46,62,0,4
2015-10-16T21:03:32,62,0,4
2015-10-16T22:03:00,62,0,4
2015-10-16T23:02:52,62,0,4
2015-10-17T00:02:59,62,0,4
2015-10-17T01:03:36,62,0,4
2015-10-17T09:52:52,62,0,5
2015-10-17T10:03:02,62,0,5
2015-10-17T11:02:39,62,1,5
2015-10-17T12:03:00,63,1,5
2015-10-17T13:02:58,64,1,5
2015-10-17T14:03:29,64,1,5
2015-10-17T15:03:01,64,1,6
2015-10-17T16:03:15,65,1,6
2015-10-17T17:03:08,65,1,6
2015-10-17T18:03:10,65,1,6
2015-10-17T19:03:04,65,1,6
2015-10-17T20:02:46,66,1,6
2015-10-17T21:03:02,66,1,7
2015-10-17T22:06:04,67,1,7
2015-10-17T23:03:27,67,1,7
2015-10-18T00:02:54,68,1,7
2015-10-18T01:03:17,68,1,7
2015-10-18T02:03:20,68,1,7
2015-10-18T03:03:25,68,1,7
2015-10-18T04:03:11,68,1,7
2015-10-18T05:03:01,68,1,7
2015-10-18T06:03:03,68,1,7
2015-10-18T07:03:03,68,1,7
2015-10-18T08:02:51,68,1,7
2015-10-18T09:03:13,68,1,7
2015-10-18T10:02:58,68,1,7
2015-10-18T11:03:06,68,1,7
2015-10-18T12:02:58,70,1,7
2015-10-18T13:03:00,71,1,7
2015-10-18T14:03:02,71,1,7
2015-10-18T15:03:07,71,1,7
2015-10-18T16:03:20,73,1,7
2015-10-18T17:04:06,73,1,7
2015-10-18T18:03:16,74,1,7
2015-10-18T19:03:11,74,1,7
2015-10-18T20:03:13,74,1,7
2015-10-18T21:03:10,75,1,7
2015-10-18T22:03:20,75,1,7
2015-10-18T23:03:27,75,1,7
2015-10-19T00:03:09,77,1,7
2015-10-19T01:03:25,77,1,7
