Date,Pour,Contre,Mitige
2015-10-16T08:35:57,0,0,1
2015-10-16T09:04:17,0,0,1
2015-10-16T10:04:29,0,0,1
2015-10-16T11:04:29,0,0,1
2015-10-16T12:04:08,0,0,1
2015-10-16T13:04:01,0,0,1
2015-10-16T14:04:23,0,0,1
2015-10-16T15:04:19,0,0,1
2015-10-16T16:04:52,0,0,1
2015-10-16T16:24:21,0,0,1
2015-10-16T17:01:48,0,0,1
2015-10-16T17:06:06,0,0,1
2015-10-16T18:02:58,0,0,1
2015-10-16T19:02:59,0,0,1
2015-10-16T20:02:46,0,0,1
2015-10-16T21:03:32,0,0,1
2015-10-16T22:03:00,1,0,1
2015-10-16T23:02:52,1,0,1
2015-10-17T00:02:59,1,0,1
2015-10-17T01:03:36,1,0,1
2015-10-17T09:52:52,1,0,1
2015-10-17T10:03:02,1,0,1
2015-10-17T11:02:39,1,0,1
2015-10-17T12:03:00,1,0,1
2015-10-17T13:02:58,1,0,1
2015-10-17T14:03:29,1,0,1
2015-10-17T15:03:01,1,0,1
2015-10-17T16:03:15,1,0,1
2015-10-17T17:03:08,1,0,1
2015-10-17T18:03:10,1,0,1
2015-10-17T19:03:04,1,0,1
2015-10-17T20:02:46,1,0,1
2015-10-17T21:03:02,1,0,1
2015-10-17T22:06:04,1,0,1
2015-10-17T23:03:27,1,0,1
2015-10-18T00:02:54,1,0,1
2015-10-18T01:03:17,1,0,1
2015-10-18T02:03:20,1,0,1
2015-10-18T03:03:25,1,0,1
2015-10-18T04:03:11,1,0,1
2015-10-18T05:03:01,1,0,1
2015-10-18T06:03:03,1,0,1
2015-10-18T07:03:03,1,0,1
2015-10-18T08:02:51,1,0,1
2015-10-18T09:03:13,1,0,1
2015-10-18T10:02:58,1,0,1
2015-10-18T11:03:06,1,0,1
2015-10-18T12:02:58,1,0,1
2015-10-18T13:03:00,1,0,1
2015-10-18T14:03:02,1,0,1
2015-10-18T15:03:07,1,0,1
2015-10-18T16:03:20,1,0,1
2015-10-18T17:04:06,1,0,1
2015-10-18T18:03:16,1,0,1
2015-10-18T19:03:11,1,0,1
2015-10-18T20:03:13,1,0,1
2015-10-18T21:03:10,1,0,1
2015-10-18T22:03:20,1,0,1
2015-10-18T23:03:27,1,0,1
2015-10-19T00:03:09,1,0,1
2015-10-19T01:03:25,1,0,1
