Date,Pour,Contre,Mitige
2015-10-15T08:59:21,6,0,1
2015-10-15T09:03:46,6,0,1
2015-10-15T10:04:00,6,0,1
2015-10-15T11:04:18,6,0,1
2015-10-15T15:02:31,6,0,1
2015-10-15T16:03:48,6,0,1
2015-10-15T17:20:08,6,0,1
2015-10-15T18:04:13,6,0,1
2015-10-15T18:13:33,6,0,1
2015-10-15T19:04:16,6,0,1
2015-10-15T20:04:29,6,0,1
2015-10-16T08:35:57,6,0,1
2015-10-16T09:04:17,6,0,1
2015-10-16T10:04:29,6,0,1
2015-10-16T11:04:29,6,0,1
2015-10-16T12:04:08,6,0,1
2015-10-16T13:04:01,6,0,1
2015-10-16T14:04:23,6,0,1
2015-10-16T15:04:19,6,0,1
2015-10-16T16:04:52,6,0,1
2015-10-16T16:24:21,6,0,1
2015-10-16T17:01:48,6,0,1
2015-10-16T17:06:06,6,0,1
2015-10-16T18:02:58,6,0,1
2015-10-16T19:02:59,6,0,1
2015-10-16T20:02:46,6,0,1
2015-10-16T21:03:32,6,0,1
2015-10-16T22:03:00,6,0,1
2015-10-16T23:02:52,6,0,1
2015-10-17T00:02:59,6,0,1
2015-10-17T01:03:36,6,0,1
2015-10-17T09:52:52,6,0,1
2015-10-17T10:03:02,6,0,1
2015-10-17T11:02:39,6,0,1
2015-10-17T12:03:00,6,0,1
2015-10-17T13:02:58,7,0,1
2015-10-17T14:03:29,7,0,1
2015-10-17T15:03:01,7,0,1
2015-10-17T16:03:15,7,0,1
2015-10-17T17:03:08,7,0,1
2015-10-17T18:03:10,7,0,1
2015-10-17T19:03:04,7,0,1
2015-10-17T20:02:46,7,0,1
2015-10-17T21:03:02,7,0,1
2015-10-17T22:06:04,7,0,1
2015-10-17T23:03:27,7,1,1
2015-10-18T00:02:54,7,1,1
2015-10-18T01:03:17,7,1,1
2015-10-18T02:03:20,7,1,1
2015-10-18T03:03:25,7,1,1
2015-10-18T04:03:11,7,1,1
2015-10-18T05:03:01,7,1,1
2015-10-18T06:03:03,7,1,1
2015-10-18T07:03:03,7,1,1
2015-10-18T08:02:51,7,1,1
2015-10-18T09:03:13,7,1,1
2015-10-18T10:02:58,7,1,1
2015-10-18T11:03:06,7,1,1
2015-10-18T12:02:58,7,1,1
2015-10-18T13:03:00,7,1,1
2015-10-18T14:03:02,7,1,1
2015-10-18T15:03:07,7,1,1
2015-10-18T16:03:20,7,1,1
2015-10-18T17:04:06,7,1,1
2015-10-18T18:03:16,7,1,1
2015-10-18T19:03:11,7,1,1
2015-10-18T20:03:13,7,1,1
2015-10-18T21:03:10,7,1,1
2015-10-18T22:03:20,7,1,1
2015-10-18T23:03:27,7,1,1
2015-10-19T00:03:09,7,1,1
2015-10-19T01:03:25,7,1,1
