Date,Pour,Contre,Mitige
2015-10-15T16:03:48,0,0,0
2015-10-15T17:20:08,4,0,0
2015-10-15T18:04:13,6,0,0
2015-10-15T18:13:33,7,0,0
2015-10-15T19:04:16,10,0,0
2015-10-15T20:04:29,10,0,0
2015-10-16T08:35:57,13,0,0
2015-10-16T09:04:17,13,0,0
2015-10-16T10:04:29,13,0,0
2015-10-16T11:04:29,14,0,0
2015-10-16T12:04:08,14,0,0
2015-10-16T13:04:01,18,0,0
2015-10-16T14:04:23,19,0,0
2015-10-16T15:04:19,23,0,0
2015-10-16T16:04:52,27,0,0
2015-10-16T16:24:21,28,0,0
2015-10-16T17:01:48,30,0,0
2015-10-16T17:06:06,30,0,0
2015-10-16T18:02:58,32,0,0
2015-10-16T19:02:59,35,0,0
2015-10-16T20:02:46,35,0,0
2015-10-16T21:03:32,35,0,0
2015-10-16T22:03:00,35,0,0
2015-10-16T23:02:52,36,0,0
2015-10-17T00:02:59,36,0,0
2015-10-17T01:03:36,36,0,0
2015-10-17T09:52:52,37,0,0
2015-10-17T10:03:02,37,0,0
2015-10-17T11:02:39,39,0,0
2015-10-17T12:03:00,39,0,0
2015-10-17T13:02:58,40,0,0
2015-10-17T14:03:29,42,0,0
2015-10-17T15:03:01,43,1,0
2015-10-17T16:03:15,43,1,0
2015-10-17T17:03:08,45,1,0
2015-10-17T18:03:10,46,1,0
2015-10-17T19:03:04,46,1,0
2015-10-17T20:02:46,49,1,1
2015-10-17T21:03:02,49,1,1
2015-10-17T22:06:04,51,1,1
2015-10-17T23:03:27,52,1,1
2015-10-18T00:02:54,55,1,1
2015-10-18T01:03:17,55,1,1
2015-10-18T02:03:20,56,1,1
2015-10-18T03:03:25,56,1,1
2015-10-18T04:03:11,56,1,1
2015-10-18T05:03:01,56,1,1
2015-10-18T06:03:03,56,1,1
2015-10-18T07:03:03,56,1,1
2015-10-18T08:02:51,56,1,1
2015-10-18T09:03:13,57,1,1
2015-10-18T10:02:58,58,1,1
2015-10-18T11:03:06,59,1,1
2015-10-18T12:02:58,63,1,1
2015-10-18T13:03:00,65,1,1
2015-10-18T14:03:02,69,1,1
2015-10-18T15:03:07,69,1,2
2015-10-18T16:03:20,71,1,2
2015-10-18T17:04:06,72,1,2
2015-10-18T18:03:16,73,1,2
2015-10-18T19:03:11,74,1,2
2015-10-18T20:03:13,76,1,2
2015-10-18T21:03:10,77,1,2
2015-10-18T22:03:20,78,1,2
2015-10-18T23:03:27,81,1,2
2015-10-19T00:03:09,83,1,2
2015-10-19T01:03:25,83,1,2
