Date,Pour,Contre,Mitige
2015-10-17T18:03:10,0,0,0
2015-10-17T19:03:04,0,0,0
2015-10-17T20:02:46,0,0,0
2015-10-17T21:03:02,2,0,0
2015-10-17T22:06:04,2,0,0
2015-10-17T23:03:27,2,0,0
2015-10-18T00:02:54,2,0,0
2015-10-18T01:03:17,2,0,0
2015-10-18T02:03:20,2,0,0
2015-10-18T03:03:25,2,0,0
2015-10-18T04:03:11,2,0,0
2015-10-18T05:03:01,2,0,0
2015-10-18T06:03:03,2,0,0
2015-10-18T07:03:03,2,0,0
2015-10-18T08:02:51,2,0,0
2015-10-18T09:03:13,2,0,0
2015-10-18T10:02:58,2,0,0
2015-10-18T11:03:06,2,0,0
2015-10-18T12:02:58,2,0,0
2015-10-18T13:03:00,3,0,1
2015-10-18T14:03:02,3,0,1
2015-10-18T15:03:07,3,0,1
2015-10-18T16:03:20,3,0,1
2015-10-18T17:04:06,3,0,1
2015-10-18T18:03:16,3,0,1
2015-10-18T19:03:11,3,0,1
2015-10-18T20:03:13,3,0,1
2015-10-18T21:03:10,3,0,1
2015-10-18T22:03:20,3,0,1
2015-10-18T23:03:27,3,0,1
2015-10-19T00:03:09,4,0,1
2015-10-19T01:03:25,4,0,1
