Date,Pour,Contre,Mitige
2015-10-15T08:59:21,132,61,34
2015-10-15T09:03:46,132,61,34
2015-10-15T10:04:00,132,61,34
2015-10-15T11:04:18,135,62,34
2015-10-15T15:02:31,135,64,34
2015-10-15T16:03:48,136,64,34
2015-10-15T17:20:08,136,64,34
2015-10-15T18:04:13,137,65,34
2015-10-15T18:13:33,137,65,34
2015-10-15T19:04:16,138,66,34
2015-10-15T20:04:29,138,66,34
2015-10-16T08:35:57,145,67,35
2015-10-16T09:04:17,145,67,35
2015-10-16T10:04:29,146,68,35
2015-10-16T11:04:29,146,69,35
2015-10-16T12:04:08,147,70,35
2015-10-16T13:04:01,148,70,35
2015-10-16T14:04:23,150,70,35
2015-10-16T15:04:19,150,71,35
2015-10-16T16:04:52,151,71,35
2015-10-16T16:24:21,154,71,35
2015-10-16T17:01:48,156,71,35
2015-10-16T17:06:06,156,71,35
2015-10-16T18:02:58,156,71,35
2015-10-16T19:02:59,156,71,35
2015-10-16T20:02:46,156,71,35
2015-10-16T21:03:32,156,71,35
2015-10-16T22:03:00,157,71,35
2015-10-16T23:02:52,158,71,35
2015-10-17T00:02:59,158,71,36
2015-10-17T01:03:36,158,71,36
2015-10-17T09:52:52,159,71,37
2015-10-17T10:03:02,159,71,37
2015-10-17T11:02:39,159,71,37
2015-10-17T12:03:00,160,71,37
2015-10-17T13:02:58,161,71,37
2015-10-17T14:03:29,163,71,37
2015-10-17T15:03:01,164,73,38
2015-10-17T16:03:15,164,75,38
2015-10-17T17:03:08,164,75,38
2015-10-17T18:03:10,167,75,38
2015-10-17T19:03:04,170,76,38
2015-10-17T20:02:46,171,76,38
2015-10-17T21:03:02,174,76,38
2015-10-17T22:06:04,174,76,38
2015-10-17T23:03:27,175,76,38
2015-10-18T00:02:54,175,76,39
2015-10-18T01:03:17,176,76,40
2015-10-18T02:03:20,176,76,40
2015-10-18T03:03:25,177,76,40
2015-10-18T04:03:11,178,76,40
2015-10-18T05:03:01,178,76,40
2015-10-18T06:03:03,178,77,41
2015-10-18T07:03:03,178,77,41
2015-10-18T08:02:51,179,77,41
2015-10-18T09:03:13,179,77,41
2015-10-18T10:02:58,180,77,41
2015-10-18T11:03:06,180,77,41
2015-10-18T12:02:58,181,77,42
2015-10-18T13:03:00,182,78,43
2015-10-18T14:03:02,182,79,43
2015-10-18T15:03:07,184,80,43
2015-10-18T16:03:20,185,80,44
2015-10-18T17:04:06,185,80,45
2015-10-18T18:03:16,186,80,46
2015-10-18T19:03:11,189,81,46
2015-10-18T20:03:13,190,82,46
2015-10-18T21:03:10,190,83,46
2015-10-18T22:03:20,193,83,46
2015-10-18T23:03:27,196,83,46
2015-10-19T00:03:09,203,84,47
2015-10-19T01:03:25,203,84,47
