Date,Pour,Contre,Mitige
2015-10-16T18:02:58,0,0,0
2015-10-16T19:02:59,0,0,0
2015-10-16T20:02:46,0,0,0
2015-10-16T21:03:32,1,0,0
2015-10-16T22:03:00,1,0,0
2015-10-16T23:02:52,2,0,0
2015-10-17T00:02:59,2,0,0
2015-10-17T01:03:36,2,0,0
2015-10-17T09:52:52,2,0,0
2015-10-17T10:03:02,2,0,0
2015-10-17T11:02:39,2,0,0
2015-10-17T12:03:00,3,0,0
2015-10-17T13:02:58,3,0,0
2015-10-17T14:03:29,4,0,0
2015-10-17T15:03:01,4,0,0
2015-10-17T16:03:15,4,0,1
2015-10-17T17:03:08,4,0,1
2015-10-17T18:03:10,4,0,1
2015-10-17T19:03:04,4,0,1
2015-10-17T20:02:46,4,0,1
2015-10-17T21:03:02,4,0,1
2015-10-17T22:06:04,4,0,1
2015-10-17T23:03:27,4,0,1
2015-10-18T00:02:54,4,0,1
2015-10-18T01:03:17,4,0,1
2015-10-18T02:03:20,4,0,1
2015-10-18T03:03:25,4,0,1
2015-10-18T04:03:11,4,0,1
2015-10-18T05:03:01,4,0,1
2015-10-18T06:03:03,4,0,1
2015-10-18T07:03:03,4,0,1
2015-10-18T08:02:51,4,0,1
2015-10-18T09:03:13,4,0,1
2015-10-18T10:02:58,4,0,1
2015-10-18T11:03:06,4,0,2
2015-10-18T12:02:58,4,0,2
2015-10-18T13:03:00,4,0,2
2015-10-18T14:03:02,4,0,2
2015-10-18T15:03:07,4,0,2
2015-10-18T16:03:20,4,0,2
2015-10-18T17:04:06,4,0,2
2015-10-18T18:03:16,4,0,2
2015-10-18T19:03:11,4,0,2
2015-10-18T20:03:13,4,0,2
2015-10-18T21:03:10,4,0,2
2015-10-18T22:03:20,4,0,2
2015-10-18T23:03:27,4,0,2
2015-10-19T00:03:09,4,0,2
2015-10-19T01:03:25,4,0,2
