Date,Pour,Contre,Mitige
2015-10-15T08:59:21,267,0,1
2015-10-15T09:03:46,267,0,1
2015-10-15T10:04:00,268,0,1
2015-10-15T11:04:18,270,0,1
2015-10-15T15:02:31,273,0,1
2015-10-15T16:03:48,275,0,1
2015-10-15T17:20:08,278,0,1
2015-10-15T18:04:13,278,0,1
2015-10-15T18:13:33,280,0,1
2015-10-15T19:04:16,283,0,1
2015-10-15T20:04:29,284,0,1
2015-10-16T08:35:57,298,0,1
2015-10-16T09:04:17,298,0,1
2015-10-16T10:04:29,302,0,1
2015-10-16T11:04:29,305,0,1
2015-10-16T12:04:08,309,0,1
2015-10-16T13:04:01,309,0,1
2015-10-16T14:04:23,311,0,1
2015-10-16T15:04:19,316,0,1
2015-10-16T16:04:52,318,0,1
2015-10-16T16:24:21,318,0,1
2015-10-16T17:01:48,318,0,1
2015-10-16T17:06:06,318,0,1
2015-10-16T18:02:58,320,0,1
2015-10-16T19:02:59,322,0,1
2015-10-16T20:02:46,326,0,1
2015-10-16T21:03:32,328,0,1
2015-10-16T22:03:00,329,0,1
2015-10-16T23:02:52,329,0,1
2015-10-17T00:02:59,331,0,1
2015-10-17T01:03:36,334,0,1
2015-10-17T09:52:52,337,0,1
2015-10-17T10:03:02,338,0,1
2015-10-17T11:02:39,344,0,1
2015-10-17T12:03:00,346,0,1
2015-10-17T13:02:58,346,0,1
2015-10-17T14:03:29,349,0,1
2015-10-17T15:03:01,352,0,1
2015-10-17T16:03:15,352,0,1
2015-10-17T17:03:08,353,0,1
2015-10-17T18:03:10,354,0,1
2015-10-17T19:03:04,354,0,1
2015-10-17T20:02:46,354,0,1
2015-10-17T21:03:02,356,0,1
2015-10-17T22:06:04,356,0,2
2015-10-17T23:03:27,357,0,2
2015-10-18T00:02:54,358,0,2
2015-10-18T01:03:17,358,0,2
2015-10-18T02:03:20,358,0,2
2015-10-18T03:03:25,358,0,2
2015-10-18T04:03:11,358,0,2
2015-10-18T05:03:01,358,0,2
2015-10-18T06:03:03,358,0,2
2015-10-18T07:03:03,358,0,2
2015-10-18T08:02:51,358,0,2
2015-10-18T09:03:13,358,0,2
2015-10-18T10:02:58,358,0,2
2015-10-18T11:03:06,358,0,2
2015-10-18T12:02:58,360,0,2
2015-10-18T13:03:00,360,0,2
2015-10-18T14:03:02,361,0,2
2015-10-18T15:03:07,363,0,2
2015-10-18T16:03:20,364,0,2
2015-10-18T17:04:06,367,0,2
2015-10-18T18:03:16,372,0,2
2015-10-18T19:03:11,377,0,2
2015-10-18T20:03:13,378,0,2
2015-10-18T21:03:10,381,0,2
2015-10-18T22:03:20,381,0,3
2015-10-18T23:03:27,382,0,3
2015-10-19T00:03:09,385,0,3
2015-10-19T01:03:25,385,0,3
