Date,Pour,Contre,Mitige
2015-10-15T08:59:21,225,2,6
2015-10-15T09:03:46,225,2,6
2015-10-15T10:04:00,225,2,6
2015-10-15T11:04:18,225,2,6
2015-10-15T15:02:31,231,2,6
2015-10-15T16:03:48,232,2,6
2015-10-15T17:20:08,232,2,6
2015-10-15T18:04:13,234,2,6
2015-10-15T18:13:33,234,2,6
2015-10-15T19:04:16,237,2,6
2015-10-15T20:04:29,240,2,6
2015-10-16T08:35:57,245,2,6
2015-10-16T09:04:17,245,2,6
2015-10-16T10:04:29,245,2,6
2015-10-16T11:04:29,245,2,6
2015-10-16T12:04:08,246,2,6
2015-10-16T13:04:01,248,2,7
2015-10-16T14:04:23,248,2,7
2015-10-16T15:04:19,250,2,7
2015-10-16T16:04:52,251,2,7
2015-10-16T16:24:21,251,2,7
2015-10-16T17:01:48,252,2,7
2015-10-16T17:06:06,252,2,7
2015-10-16T18:02:58,252,2,7
2015-10-16T19:02:59,254,2,7
2015-10-16T20:02:46,255,2,8
2015-10-16T21:03:32,257,2,8
2015-10-16T22:03:00,259,2,8
2015-10-16T23:02:52,260,2,8
2015-10-17T00:02:59,262,2,8
2015-10-17T01:03:36,264,2,8
2015-10-17T09:52:52,268,2,8
2015-10-17T10:03:02,268,2,8
2015-10-17T11:02:39,269,2,8
2015-10-17T12:03:00,272,2,8
2015-10-17T13:02:58,275,2,8
2015-10-17T14:03:29,275,2,8
2015-10-17T15:03:01,276,2,8
2015-10-17T16:03:15,276,2,8
2015-10-17T17:03:08,279,2,8
2015-10-17T18:03:10,281,3,8
2015-10-17T19:03:04,286,3,8
2015-10-17T20:02:46,286,3,8
2015-10-17T21:03:02,288,3,8
2015-10-17T22:06:04,289,3,8
2015-10-17T23:03:27,292,3,8
2015-10-18T00:02:54,294,3,8
2015-10-18T01:03:17,294,3,8
2015-10-18T02:03:20,295,3,8
2015-10-18T03:03:25,295,3,8
2015-10-18T04:03:11,295,3,8
2015-10-18T05:03:01,295,3,8
2015-10-18T06:03:03,295,3,8
2015-10-18T07:03:03,295,3,8
2015-10-18T08:02:51,295,3,8
2015-10-18T09:03:13,295,3,8
2015-10-18T10:02:58,296,3,8
2015-10-18T11:03:06,296,3,8
2015-10-18T12:02:58,297,3,8
2015-10-18T13:03:00,300,3,8
2015-10-18T14:03:02,302,3,8
2015-10-18T15:03:07,302,3,8
2015-10-18T16:03:20,302,3,8
2015-10-18T17:04:06,305,3,8
2015-10-18T18:03:16,309,3,8
2015-10-18T19:03:11,311,3,8
2015-10-18T20:03:13,313,3,8
2015-10-18T21:03:10,314,3,8
2015-10-18T22:03:20,316,3,8
2015-10-18T23:03:27,317,3,8
2015-10-19T00:03:09,321,3,9
2015-10-19T01:03:25,321,3,9
