Date,Pour,Contre,Mitige
2015-10-15T08:59:21,84,43,19
2015-10-15T09:03:46,84,43,19
2015-10-15T10:04:00,84,43,19
2015-10-15T11:04:18,85,44,19
2015-10-15T15:02:31,88,44,19
2015-10-15T16:03:48,89,44,19
2015-10-15T17:20:08,91,44,19
2015-10-15T18:04:13,91,44,19
2015-10-15T18:13:33,91,44,19
2015-10-15T19:04:16,91,44,19
2015-10-15T20:04:29,91,44,19
2015-10-16T08:35:57,96,44,19
2015-10-16T09:04:17,96,44,19
2015-10-16T10:04:29,96,44,19
2015-10-16T11:04:29,97,44,19
2015-10-16T12:04:08,98,44,19
2015-10-16T13:04:01,98,44,19
2015-10-16T14:04:23,98,45,19
2015-10-16T15:04:19,99,45,19
2015-10-16T16:04:52,100,45,19
2015-10-16T16:24:21,101,45,19
2015-10-16T17:01:48,101,45,19
2015-10-16T17:06:06,101,45,19
2015-10-16T18:02:58,101,45,20
2015-10-16T19:02:59,101,45,22
2015-10-16T20:02:46,102,45,22
2015-10-16T21:03:32,102,45,22
2015-10-16T22:03:00,104,45,22
2015-10-16T23:02:52,105,45,22
2015-10-17T00:02:59,105,45,22
2015-10-17T01:03:36,105,45,22
2015-10-17T09:52:52,105,45,23
2015-10-17T10:03:02,106,45,23
2015-10-17T11:02:39,106,45,23
2015-10-17T12:03:00,109,45,23
2015-10-17T13:02:58,109,45,23
2015-10-17T14:03:29,109,45,23
2015-10-17T15:03:01,109,45,23
2015-10-17T16:03:15,109,45,23
2015-10-17T17:03:08,109,45,23
2015-10-17T18:03:10,110,46,23
2015-10-17T19:03:04,110,46,24
2015-10-17T20:02:46,111,46,24
2015-10-17T21:03:02,111,46,24
2015-10-17T22:06:04,111,46,24
2015-10-17T23:03:27,111,46,24
2015-10-18T00:02:54,111,48,24
2015-10-18T01:03:17,111,48,24
2015-10-18T02:03:20,111,48,24
2015-10-18T03:03:25,111,48,24
2015-10-18T04:03:11,111,48,24
2015-10-18T05:03:01,111,48,24
2015-10-18T06:03:03,111,48,24
2015-10-18T07:03:03,111,48,24
2015-10-18T08:02:51,111,48,24
2015-10-18T09:03:13,111,48,24
2015-10-18T10:02:58,111,48,24
2015-10-18T11:03:06,111,48,24
2015-10-18T12:02:58,112,48,24
2015-10-18T13:03:00,113,48,24
2015-10-18T14:03:02,115,48,24
2015-10-18T15:03:07,115,48,24
2015-10-18T16:03:20,116,48,24
2015-10-18T17:04:06,117,48,24
2015-10-18T18:03:16,118,48,24
2015-10-18T19:03:11,119,48,24
2015-10-18T20:03:13,123,48,26
2015-10-18T21:03:10,123,48,26
2015-10-18T22:03:20,123,48,26
2015-10-18T23:03:27,123,48,26
2015-10-19T00:03:09,123,49,26
2015-10-19T01:03:25,123,49,26
