Date,Pour,Contre,Mitige
2015-10-18T16:03:20,1,0,0
2015-10-18T17:04:06,1,0,0
2015-10-18T18:03:16,1,0,0
2015-10-18T19:03:11,1,1,0
2015-10-18T20:03:13,1,1,0
2015-10-18T21:03:10,1,1,0
2015-10-18T22:03:20,1,1,0
2015-10-18T23:03:27,1,1,1
2015-10-19T00:03:09,1,1,1
2015-10-19T01:03:25,1,1,1
