Date,Pour,Contre,Mitige
2015-10-15T08:59:21,99,12,24
2015-10-15T09:03:46,99,12,24
2015-10-15T10:04:00,100,12,24
2015-10-15T11:04:18,100,12,24
2015-10-15T15:02:31,103,12,24
2015-10-15T16:03:48,104,12,24
2015-10-15T17:20:08,105,12,24
2015-10-15T18:04:13,106,12,24
2015-10-15T18:13:33,106,12,24
2015-10-15T19:04:16,106,12,24
2015-10-15T20:04:29,108,12,24
2015-10-16T08:35:57,110,12,24
2015-10-16T09:04:17,111,12,24
2015-10-16T10:04:29,112,12,24
2015-10-16T11:04:29,115,12,24
2015-10-16T12:04:08,116,13,24
2015-10-16T13:04:01,116,13,24
2015-10-16T14:04:23,116,13,24
2015-10-16T15:04:19,116,13,24
2015-10-16T16:04:52,117,13,24
2015-10-16T16:24:21,117,13,24
2015-10-16T17:01:48,117,13,24
2015-10-16T17:06:06,119,13,25
2015-10-16T18:02:58,119,13,25
2015-10-16T19:02:59,120,13,25
2015-10-16T20:02:46,120,13,25
2015-10-16T21:03:32,121,13,25
2015-10-16T22:03:00,122,13,25
2015-10-16T23:02:52,122,13,25
2015-10-17T00:02:59,122,13,25
2015-10-17T01:03:36,122,13,25
2015-10-17T09:52:52,122,13,25
2015-10-17T10:03:02,122,13,25
2015-10-17T11:02:39,123,13,26
2015-10-17T12:03:00,123,13,26
2015-10-17T13:02:58,123,13,26
2015-10-17T14:03:29,123,13,26
2015-10-17T15:03:01,123,13,26
2015-10-17T16:03:15,123,13,26
2015-10-17T17:03:08,123,13,26
2015-10-17T18:03:10,123,13,26
2015-10-17T19:03:04,123,13,26
2015-10-17T20:02:46,123,13,27
2015-10-17T21:03:02,124,13,28
2015-10-17T22:06:04,125,13,28
2015-10-17T23:03:27,126,13,28
2015-10-18T00:02:54,127,13,28
2015-10-18T01:03:17,127,13,28
2015-10-18T02:03:20,127,13,28
2015-10-18T03:03:25,127,13,28
2015-10-18T04:03:11,127,13,28
2015-10-18T05:03:01,127,13,29
2015-10-18T06:03:03,127,13,29
2015-10-18T07:03:03,127,13,29
2015-10-18T08:02:51,127,13,29
2015-10-18T09:03:13,127,13,29
2015-10-18T10:02:58,127,13,29
2015-10-18T11:03:06,128,14,29
2015-10-18T12:02:58,129,14,29
2015-10-18T13:03:00,130,14,29
2015-10-18T14:03:02,131,14,29
2015-10-18T15:03:07,131,14,29
2015-10-18T16:03:20,132,14,29
2015-10-18T17:04:06,133,14,29
2015-10-18T18:03:16,134,14,30
2015-10-18T19:03:11,137,14,30
2015-10-18T20:03:13,138,14,30
2015-10-18T21:03:10,140,14,30
2015-10-18T22:03:20,141,14,31
2015-10-18T23:03:27,142,14,31
2015-10-19T00:03:09,144,14,32
2015-10-19T01:03:25,144,14,32
