Date,Pour,Contre,Mitige
2015-10-15T08:59:21,90,4,3
2015-10-15T09:03:46,90,4,3
2015-10-15T10:04:00,91,4,3
2015-10-15T11:04:18,91,4,3
2015-10-15T15:02:31,91,4,3
2015-10-15T16:03:48,91,4,3
2015-10-15T17:20:08,91,4,3
2015-10-15T18:04:13,91,4,3
2015-10-15T18:13:33,91,4,3
2015-10-15T19:04:16,91,4,3
2015-10-15T20:04:29,91,4,3
2015-10-16T08:35:57,94,4,3
2015-10-16T09:04:17,94,4,3
2015-10-16T10:04:29,94,4,3
2015-10-16T11:04:29,94,4,3
2015-10-16T12:04:08,95,4,3
2015-10-16T13:04:01,96,4,3
2015-10-16T14:04:23,97,4,3
2015-10-16T15:04:19,97,4,3
2015-10-16T16:04:52,97,4,3
2015-10-16T16:24:21,97,4,3
2015-10-16T17:01:48,97,4,3
2015-10-16T17:06:06,98,4,3
2015-10-16T18:02:58,100,4,4
2015-10-16T19:02:59,103,4,4
2015-10-16T20:02:46,103,5,4
2015-10-16T21:03:32,103,5,4
2015-10-16T22:03:00,105,6,4
2015-10-16T23:02:52,105,6,4
2015-10-17T00:02:59,105,6,4
2015-10-17T01:03:36,106,6,4
2015-10-17T09:52:52,108,6,4
2015-10-17T10:03:02,108,6,4
2015-10-17T11:02:39,108,6,4
2015-10-17T12:03:00,111,6,4
2015-10-17T13:02:58,113,6,4
2015-10-17T14:03:29,116,6,4
2015-10-17T15:03:01,118,6,4
2015-10-17T16:03:15,122,6,4
2015-10-17T17:03:08,124,6,4
2015-10-17T18:03:10,125,7,4
2015-10-17T19:03:04,126,7,4
2015-10-17T20:02:46,127,7,4
2015-10-17T21:03:02,127,7,4
2015-10-17T22:06:04,128,7,4
2015-10-17T23:03:27,129,7,4
2015-10-18T00:02:54,129,7,4
2015-10-18T01:03:17,130,7,4
2015-10-18T02:03:20,131,7,4
2015-10-18T03:03:25,131,7,4
2015-10-18T04:03:11,131,7,4
2015-10-18T05:03:01,131,7,4
2015-10-18T06:03:03,131,7,4
2015-10-18T07:03:03,131,7,4
2015-10-18T08:02:51,131,7,4
2015-10-18T09:03:13,131,7,4
2015-10-18T10:02:58,131,7,4
2015-10-18T11:03:06,131,7,4
2015-10-18T12:02:58,131,7,4
2015-10-18T13:03:00,131,7,4
2015-10-18T14:03:02,131,7,5
2015-10-18T15:03:07,133,7,5
2015-10-18T16:03:20,133,7,5
2015-10-18T17:04:06,134,7,5
2015-10-18T18:03:16,138,7,6
2015-10-18T19:03:11,138,7,6
2015-10-18T20:03:13,140,7,6
2015-10-18T21:03:10,140,7,6
2015-10-18T22:03:20,142,7,6
2015-10-18T23:03:27,143,7,6
2015-10-19T00:03:09,144,7,6
2015-10-19T01:03:25,144,7,6
