Date,Pour,Contre,Mitige
2015-10-15T08:59:21,1406,29,127
2015-10-15T09:03:46,1406,29,127
2015-10-15T10:04:00,1412,29,127
2015-10-15T11:04:18,1419,29,127
2015-10-15T15:02:31,1468,30,131
2015-10-15T16:03:48,1485,31,132
2015-10-15T17:20:08,1495,32,132
2015-10-15T18:04:13,1510,32,132
2015-10-15T18:13:33,1512,32,132
2015-10-15T19:04:16,1521,32,133
2015-10-15T20:04:29,1534,32,135
2015-10-16T08:35:57,1588,36,134
2015-10-16T09:04:17,1592,36,134
2015-10-16T10:04:29,1604,36,135
2015-10-16T11:04:29,1619,37,135
2015-10-16T12:04:08,1640,37,136
2015-10-16T13:04:01,1650,38,138
2015-10-16T14:04:23,1660,39,138
2015-10-16T15:04:19,1671,39,139
2015-10-16T16:04:52,1688,39,141
2015-10-16T16:24:21,1692,40,141
2015-10-16T17:01:48,1702,40,141
2015-10-16T17:06:06,1705,40,142
2015-10-16T18:02:58,1719,41,142
2015-10-16T19:02:59,1738,42,142
2015-10-16T20:02:46,1761,43,142
2015-10-16T21:03:32,1776,45,142
2015-10-16T22:03:00,1788,45,142
2015-10-16T23:02:52,1802,45,143
2015-10-17T00:02:59,1815,45,143
2015-10-17T01:03:36,1818,45,143
2015-10-17T09:52:52,1839,46,144
2015-10-17T10:03:02,1842,46,144
2015-10-17T11:02:39,1864,46,145
2015-10-17T12:03:00,1879,46,147
2015-10-17T13:02:58,1891,46,148
2015-10-17T14:03:29,1901,46,149
2015-10-17T15:03:01,1918,46,149
2015-10-17T16:03:15,1943,46,149
2015-10-17T17:03:08,1956,46,149
2015-10-17T18:03:10,1968,46,149
2015-10-17T19:03:04,1982,47,149
2015-10-17T20:02:46,1995,47,150
2015-10-17T21:03:02,2011,48,151
2015-10-17T22:06:04,2016,48,151
2015-10-17T23:03:27,2027,48,151
2015-10-18T00:02:54,2032,48,151
2015-10-18T01:03:17,2035,48,151
2015-10-18T02:03:20,2038,48,151
2015-10-18T03:03:25,2038,48,151
2015-10-18T04:03:11,2039,48,152
2015-10-18T05:03:01,2041,48,152
2015-10-18T06:03:03,2041,48,153
2015-10-18T07:03:03,2042,48,153
2015-10-18T08:02:51,2043,48,153
2015-10-18T09:03:13,2046,48,153
2015-10-18T10:02:58,2054,48,154
2015-10-18T11:03:06,2061,48,155
2015-10-18T12:02:58,2078,48,155
2015-10-18T13:03:00,2087,48,155
2015-10-18T14:03:02,2096,48,155
2015-10-18T15:03:07,2107,48,155
2015-10-18T16:03:20,2122,48,155
2015-10-18T17:04:06,2134,48,155
2015-10-18T18:03:16,2154,48,156
2015-10-18T19:03:11,2166,49,156
2015-10-18T20:03:13,2178,49,157
2015-10-18T21:03:10,2195,49,158
2015-10-18T22:03:20,2212,49,159
2015-10-18T23:03:27,2229,49,159
2015-10-19T00:03:09,2237,49,161
2015-10-19T01:03:25,2237,49,161
