Date,Pour,Contre,Mitige
2015-10-15T08:59:21,441,115,168
2015-10-15T09:03:46,441,115,168
2015-10-15T10:04:00,443,116,169
2015-10-15T11:04:18,446,116,169
2015-10-15T15:02:31,467,118,175
2015-10-15T16:03:48,474,119,176
2015-10-15T17:20:08,480,121,178
2015-10-15T18:04:13,480,122,179
2015-10-15T18:13:33,480,122,179
2015-10-15T19:04:16,482,122,182
2015-10-15T20:04:29,484,122,182
2015-10-16T08:35:57,498,126,185
2015-10-16T09:04:17,498,127,185
2015-10-16T10:04:29,504,128,187
2015-10-16T11:04:29,507,129,188
2015-10-16T12:04:08,514,129,191
2015-10-16T13:04:01,515,131,193
2015-10-16T14:04:23,518,131,194
2015-10-16T15:04:19,520,132,196
2015-10-16T16:04:52,523,132,199
2015-10-16T16:24:21,524,133,199
2015-10-16T17:01:48,526,133,202
2015-10-16T17:06:06,526,133,203
2015-10-16T18:02:58,533,135,204
2015-10-16T19:02:59,536,135,205
2015-10-16T20:02:46,543,139,208
2015-10-16T21:03:32,548,142,208
2015-10-16T22:03:00,553,142,209
2015-10-16T23:02:52,554,143,210
2015-10-17T00:02:59,561,143,212
2015-10-17T01:03:36,563,143,213
2015-10-17T09:52:52,569,145,214
2015-10-17T10:03:02,572,145,214
2015-10-17T11:02:39,574,147,214
2015-10-17T12:03:00,580,147,215
2015-10-17T13:02:58,583,147,218
2015-10-17T14:03:29,584,148,220
2015-10-17T15:03:01,588,149,220
2015-10-17T16:03:15,594,150,221
2015-10-17T17:03:08,600,150,221
2015-10-17T18:03:10,604,150,221
2015-10-17T19:03:04,608,151,224
2015-10-17T20:02:46,612,151,224
2015-10-17T21:03:02,617,151,226
2015-10-17T22:06:04,620,151,228
2015-10-17T23:03:27,622,151,228
2015-10-18T00:02:54,625,152,229
2015-10-18T01:03:17,626,153,230
2015-10-18T02:03:20,627,153,230
2015-10-18T03:03:25,627,153,230
2015-10-18T04:03:11,627,153,230
2015-10-18T05:03:01,627,153,231
2015-10-18T06:03:03,627,153,231
2015-10-18T07:03:03,627,153,231
2015-10-18T08:02:51,627,153,231
2015-10-18T09:03:13,627,153,231
2015-10-18T10:02:58,629,155,231
2015-10-18T11:03:06,631,155,233
2015-10-18T12:02:58,634,156,236
2015-10-18T13:03:00,639,157,236
2015-10-18T14:03:02,642,158,236
2015-10-18T15:03:07,646,158,237
2015-10-18T16:03:20,648,158,239
2015-10-18T17:04:06,653,158,240
2015-10-18T18:03:16,660,159,243
2015-10-18T19:03:11,665,159,244
2015-10-18T20:03:13,667,159,246
2015-10-18T21:03:10,675,159,248
2015-10-18T22:03:20,678,161,249
2015-10-18T23:03:27,684,162,250
2015-10-19T00:03:09,690,162,254
2015-10-19T01:03:25,690,162,254
