Date,Pour,Contre,Mitige
2015-10-15T08:59:21,513,14,31
2015-10-15T09:03:46,513,14,31
2015-10-15T10:04:00,514,14,31
2015-10-15T11:04:18,516,14,31
2015-10-15T15:02:31,532,15,32
2015-10-15T16:03:48,536,15,32
2015-10-15T17:20:08,539,15,32
2015-10-15T18:04:13,543,15,32
2015-10-15T18:13:33,543,15,33
2015-10-15T19:04:16,545,15,33
2015-10-15T20:04:29,547,15,33
2015-10-16T08:35:57,568,15,33
2015-10-16T09:04:17,568,15,33
2015-10-16T10:04:29,570,15,33
2015-10-16T11:04:29,571,15,33
2015-10-16T12:04:08,578,15,34
2015-10-16T13:04:01,583,15,35
2015-10-16T14:04:23,584,15,35
2015-10-16T15:04:19,588,15,35
2015-10-16T16:04:52,591,15,35
2015-10-16T16:24:21,591,15,35
2015-10-16T17:01:48,592,15,35
2015-10-16T17:06:06,592,15,35
2015-10-16T18:02:58,596,15,35
2015-10-16T19:02:59,600,15,36
2015-10-16T20:02:46,604,15,36
2015-10-16T21:03:32,609,16,36
2015-10-16T22:03:00,611,16,36
2015-10-16T23:02:52,619,16,36
2015-10-17T00:02:59,624,16,36
2015-10-17T01:03:36,626,16,36
2015-10-17T09:52:52,629,17,36
2015-10-17T10:03:02,629,17,36
2015-10-17T11:02:39,632,17,36
2015-10-17T12:03:00,639,17,36
2015-10-17T13:02:58,645,17,36
2015-10-17T14:03:29,648,17,36
2015-10-17T15:03:01,654,17,37
2015-10-17T16:03:15,654,17,37
2015-10-17T17:03:08,657,18,37
2015-10-17T18:03:10,663,18,37
2015-10-17T19:03:04,673,18,37
2015-10-17T20:02:46,675,18,37
2015-10-17T21:03:02,682,18,38
2015-10-17T22:06:04,685,18,38
2015-10-17T23:03:27,692,18,38
2015-10-18T00:02:54,694,18,38
2015-10-18T01:03:17,697,18,38
2015-10-18T02:03:20,700,18,38
2015-10-18T03:03:25,701,18,38
2015-10-18T04:03:11,702,18,38
2015-10-18T05:03:01,702,18,38
2015-10-18T06:03:03,702,18,38
2015-10-18T07:03:03,702,18,38
2015-10-18T08:02:51,702,18,38
2015-10-18T09:03:13,702,18,38
2015-10-18T10:02:58,703,18,38
2015-10-18T11:03:06,706,18,38
2015-10-18T12:02:58,715,18,38
2015-10-18T13:03:00,719,18,38
2015-10-18T14:03:02,724,18,38
2015-10-18T15:03:07,725,18,38
2015-10-18T16:03:20,726,18,39
2015-10-18T17:04:06,731,19,39
2015-10-18T18:03:16,742,19,39
2015-10-18T19:03:11,753,19,39
2015-10-18T20:03:13,762,19,39
2015-10-18T21:03:10,767,19,39
2015-10-18T22:03:20,771,19,39
2015-10-18T23:03:27,781,19,40
2015-10-19T00:03:09,793,19,41
2015-10-19T01:03:25,793,19,41
