Date,Pour,Contre,Mitige
2015-10-15T08:59:21,239,10,26
2015-10-15T09:03:46,239,10,26
2015-10-15T10:04:00,240,10,26
2015-10-15T11:04:18,240,10,26
2015-10-15T15:02:31,244,10,26
2015-10-15T16:03:48,244,10,26
2015-10-15T17:20:08,245,10,26
2015-10-15T18:04:13,247,10,26
2015-10-15T18:13:33,247,10,26
2015-10-15T19:04:16,249,11,26
2015-10-15T20:04:29,250,11,26
2015-10-16T08:35:57,256,12,26
2015-10-16T09:04:17,256,12,26
2015-10-16T10:04:29,257,12,26
2015-10-16T11:04:29,258,12,26
2015-10-16T12:04:08,262,12,26
2015-10-16T13:04:01,263,12,26
2015-10-16T14:04:23,265,12,26
2015-10-16T15:04:19,268,12,26
2015-10-16T16:04:52,272,12,26
2015-10-16T16:24:21,273,12,26
2015-10-16T17:01:48,273,12,28
2015-10-16T17:06:06,273,12,28
2015-10-16T18:02:58,275,12,28
2015-10-16T19:02:59,277,13,29
2015-10-16T20:02:46,278,13,31
2015-10-16T21:03:32,280,13,31
2015-10-16T22:03:00,280,13,31
2015-10-16T23:02:52,282,13,31
2015-10-17T00:02:59,286,13,31
2015-10-17T01:03:36,286,13,32
2015-10-17T09:52:52,287,14,32
2015-10-17T10:03:02,287,14,32
2015-10-17T11:02:39,290,14,32
2015-10-17T12:03:00,290,14,32
2015-10-17T13:02:58,291,14,33
2015-10-17T14:03:29,293,14,33
2015-10-17T15:03:01,294,14,33
2015-10-17T16:03:15,295,14,33
2015-10-17T17:03:08,296,14,34
2015-10-17T18:03:10,296,14,34
2015-10-17T19:03:04,297,15,34
2015-10-17T20:02:46,297,15,34
2015-10-17T21:03:02,297,15,34
2015-10-17T22:06:04,300,15,34
2015-10-17T23:03:27,302,15,34
2015-10-18T00:02:54,303,15,34
2015-10-18T01:03:17,304,16,34
2015-10-18T02:03:20,304,16,35
2015-10-18T03:03:25,304,16,35
2015-10-18T04:03:11,304,16,35
2015-10-18T05:03:01,304,16,35
2015-10-18T06:03:03,304,16,35
2015-10-18T07:03:03,304,16,35
2015-10-18T08:02:51,304,16,35
2015-10-18T09:03:13,304,16,35
2015-10-18T10:02:58,304,16,35
2015-10-18T11:03:06,304,16,35
2015-10-18T12:02:58,305,16,36
2015-10-18T13:03:00,306,16,36
2015-10-18T14:03:02,308,16,36
2015-10-18T15:03:07,311,16,36
2015-10-18T16:03:20,312,17,36
2015-10-18T17:04:06,312,17,37
2015-10-18T18:03:16,316,17,39
2015-10-18T19:03:11,319,17,39
2015-10-18T20:03:13,321,17,39
2015-10-18T21:03:10,323,17,40
2015-10-18T22:03:20,325,17,40
2015-10-18T23:03:27,329,17,40
2015-10-19T00:03:09,335,17,40
2015-10-19T01:03:25,335,17,40
